[
  {
    "name": "Oh my Dear",
    "price": "14.99",
    "path": "image1.png",
    "number": 1,
    "color": "black"
  },
  {
    "name": "Awaken the hero",
    "price": "47.59",
    "path": "image2.png",
    "number": 2,
    "color": "black"
  },
  {
    "name": "Oh my Dear",
    "price": "8.99",
    "path": "image3.png",
    "number": 3,
    "color": "black"
  },
  {
    "name": "Ravenna",
    "price": "22.99",
    "path": "image4.png",
    "number": 4,
    "color": "black"
  },
  {
    "name": "Alison Hell",
    "price": "24.99",
    "path": "image5.png",
    "number": 5,
    "color": "black"
  },
  {
    "name": "Sabaton",
    "price": "17.99",
    "path": "image6.png",
    "number": 6,
    "color": "black"
  },
  {
    "name": "Pickpocket",
    "price": "27.59",
    "path": "image7.png",
    "number": 7,
    "color": "black"
  },
  {
    "name": "Iron Maiden",
    "price": "38.99",
    "path": "image8.png",
    "number": 8,
    "color": "black"
  },
  {
    "name": "Ningen isu",
    "price": "22.99",
    "path": "image9.png",
    "number": 9,
    "color": "black"
  },
  {
    "name": "Hypnogaja",
    "price": "16.99",
    "path": "image10.png",
    "number": 10,
    "color": "black"
  }
]
